{
  "name": "root_node",
  "prompt": null,
  "menu_text": null,
  "node_type": null,
  "children": [
    {
      "name": "new_client",
      "prompt": "",
      "menu_text": "Welcome to Premier Credit. By registering you agree that you've read & accepted the T&C at https://bit.ly/3dyBFyN #Menu#",
      "node_type": "item",
      "children": [
        {
          "name": "register",
          "prompt": "Please enter your ID number to proceed",
          "menu_text": "Register",
          "node_type": "item",
          "children": [
            {
              "name": "mother_maiden_name",
              "prompt": "Security question 1: What is the maiden name of your mother?",
              "menu_text": "",
              "node_type": "item",
              "children": []
            },
            {
              "name": "primary_school_name",
              "prompt": "Security question 2: What is your favorite food or color?",
              "menu_text": "",
              "node_type": "item",
              "children": []
            },
            {
              "name": "enter_new_pin",
              "prompt": "Please create a four digit PIN",
              "menu_text": "",
              "node_type": "item",
              "children": [
                {
                  "name": "confirm_pin",
                  "prompt": "Please confirm PIN",
                  "menu_text": "",
                  "node_type": "item",
                  "children": []
                }
              ]
            }
          ]
        },
        {
          "name": "request_more_info",
          "prompt": "Please call (0) 87 131 0060 for more information.",
          "menu_text": "More info",
          "node_type": "item",
          "children": []
        }
      ]
    },
    {
      "name": "authenticate",
      "prompt": "",
      "menu_text": "",
      "node_type": "menu",
      "children": [
        {
          "name": "app_proceed",
          "prompt": "Enter PIN to proceed",
          "menu_text": "Proceed",
          "node_type": "item",
          "children": []
        },
        {
          "name": "forgot_pin",
          "prompt": "Please enter new PIN",
          "menu_text": "Forgot PIN",
          "node_type": "item",
          "children": [
            {
              "name": "forgot_mother_maiden_name",
              "prompt": "Security question 1: What is the maiden name of your mother?",
              "menu_text": "",
              "node_type": "item",
              "children": []
            },
            {
              "name": "forgot_primary_school_name",
              "prompt": "Security question 2: What is your favorite food or color?",
              "menu_text": "",
              "node_type": "item",
              "children": []
            },
            {
              "name": "forgot_new_pin",
              "prompt": "Please enter new PIN",
              "menu_text": "",
              "node_type": "item",
              "children": []
            },
            {
              "name": "forgot_pin_confirm",
              "prompt": "Please confirm new PIN",
              "menu_text": "",
              "node_type": "item",
              "children": []
            }
          ]
        },
        {
          "name": "forgot_pin_and_security",
          "prompt": "Please enter your OTP or call 0200300500 to receive one.",
          "menu_text": "Forgot PIN and security questions",
          "node_type": "item",
          "children": [
            {
              "name": "reset_mother_maiden_name",
              "prompt": "Reset security question 1: What is the maiden name of your mother?",
              "menu_text": "",
              "node_type": "item",
              "children": []
            },
            {
              "name": "reset_primary_school_name",
              "prompt": "Reset security question 2: What is your favorite food or color?",
              "menu_text": "",
              "node_type": "item",
              "children": []
            },
            {
              "name": "enter_reset_pin",
              "prompt": "Please create PIN",
              "menu_text": "",
              "node_type": "item",
              "children": [
                {
                  "name": "confirm_reset_pin",
                  "prompt": "Please confirm PIN",
                  "menu_text": "",
                  "node_type": "item",
                  "children": []
                }
              ]
            }
          ]
        }
      ]
    },
    {
      "name": "premier_menu",
      "prompt": "",
      "menu_text": "",
      "node_type": "menu",
      "children": [
        {
          "name": "my_account",
          "prompt": "",
          "menu_text": "My Account",
          "node_type": "item",
          "children": [
            {
              "name": "change_pin",
              "prompt": "Please enter old PIN to proceed",
              "menu_text": "Change PIN",
              "node_type": "item",
              "children": [
                {
                  "name": "change_enter_new_pin",
                  "prompt": "Enter new PIN",
                  "menu_text": "",
                  "node_type": "item",
                  "children": [
                    {
                      "name": "change_pin_confirm",
                      "prompt": "Please confirm new PIN",
                      "menu_text": "",
                      "node_type": "item",
                      "children": []
                    }
                  ]
                }
              ]
            }
          ]
        },
        {
          "name": "loan_application",
          "prompt": "",
          "menu_text": "Loan Application",
          "node_type": "item",
          "children": []
        },
        {
          "name": "check_loan_balance",
          "prompt": "",
          "menu_text": "Check Loan Balance",
          "node_type": "item",
          "children": []
        }
      ]
    },
    {
      "name": "exit_or_menu",
      "prompt": "",
      "menu_text": "",
      "node_type": "item",
      "children": []
    }
  ]
}